<?xml version="1.0" encoding="UTF-8" standalone="no"?>
<!-- Created with Inkscape (http://www.inkscape.org/) -->

<svg
   width="80"
   height="80"
   viewBox="0 0 21.166666 21.166667"
   version="1.1"
   id="svg1124"
   xml:space="preserve"
   xmlns="http://www.w3.org/2000/svg"
   xmlns:svg="http://www.w3.org/2000/svg"
   xmlns:rdf="http://www.w3.org/1999/02/22-rdf-syntax-ns#"
   xmlns:cc="http://creativecommons.org/ns#"
   xmlns:dc="http://purl.org/dc/elements/1.1/"><title
     id="title1482">Copy</title><defs
     id="defs1121" /><metadata
     id="metadata1268"><rdf:RDF><cc:Work
         rdf:about=""><dc:creator><cc:Agent><dc:title>Gerhard A. Dittes &lt;maestro.gerardo@gmail.com&gt;</dc:title></cc:Agent></dc:creator><dc:title>Copy</dc:title></cc:Work></rdf:RDF></metadata><g
     id="g3820"><path
       style="fill:#efe7dc;fill-opacity:1;stroke:none;stroke-width:0.0492242px;stroke-linecap:butt;stroke-linejoin:miter;stroke-opacity:1"
       d="m 5.0270826,3.1749996 7e-7,14.0229174 H 15.610417 V 3.1749995 Z"
       id="path2555" /><path
       style="fill:none;fill-opacity:1;stroke:#806b56;stroke-width:2.11667;stroke-linecap:butt;stroke-linejoin:miter;stroke-dasharray:none;stroke-opacity:1"
       d="m 7.9374998,2.1166672 h -1.5875 c 0,0 -2.1166666,10e-8 -2.1166666,2.1166667 l -3e-7,11.6416671 c -10e-8,2.116672 2.1166666,2.116666 2.1166666,2.116666 H 14.2875 c 2.116667,0 2.116667,-2.116666 2.116667,-2.116666 V 4.2333333 c 0,-2.1166667 -2.116667,-2.1166667 -2.116667,-2.1166667 l -1.5875,6e-7"
       id="path2475" /><path
       style="fill:#bb9a6c;fill-opacity:1;stroke:#b39b74;stroke-width:1.5875;stroke-linecap:butt;stroke-linejoin:round;stroke-dasharray:none;stroke-opacity:1"
       d="M 12.964583,1.8520833 H 12.435416 V 3.96875 H 8.2020821 l 8e-7,-2.1166667 H 7.6729162 l -8e-7,2.1166667 h 5.2916676 z"
       id="path2485" /><path
       style="fill:none;stroke:#a88d61;stroke-width:1.05833;stroke-linecap:butt;stroke-linejoin:miter;stroke-dasharray:none;stroke-opacity:1"
       d="m 10.318751,3.7042184 c 0,0 1.5875,-5.17e-5 1.5875,-1.5875517 0,-1.58750004 -1.587501,-1.58750004 -1.587501,-1.58750004 -1.5874999,0 -1.5875002,1.58750004 -1.5875002,1.58750004 0,1.5875 1.5875012,1.5875517 1.5875012,1.5875517 z"
       id="path2553" /><circle
       style="fill:#05475c;fill-opacity:1;stroke:none;stroke-width:1.32292;stroke-linecap:round;stroke-linejoin:round"
       id="path1440"
       cx="20.372917"
       cy="20.372917"
       r="0.79374999" /><circle
       style="fill:#05475c;fill-opacity:1;stroke:none;stroke-width:1.32292;stroke-linecap:round;stroke-linejoin:round"
       id="circle1442"
       cx="20.372917"
       cy="17.197916"
       r="0.79374999" /><circle
       style="fill:#05475c;fill-opacity:1;stroke:none;stroke-width:1.32292;stroke-linecap:round;stroke-linejoin:round"
       id="circle1444"
       cx="20.372917"
       cy="14.022917"
       r="0.79374999" /><circle
       style="fill:#05475c;fill-opacity:1;stroke:none;stroke-width:1.32292;stroke-linecap:round;stroke-linejoin:round"
       id="circle1446"
       cx="20.372917"
       cy="10.847917"
       r="0.79374999" /><circle
       style="fill:#05475c;fill-opacity:1;stroke:none;stroke-width:1.32292;stroke-linecap:round;stroke-linejoin:round"
       id="circle1448"
       cx="20.372917"
       cy="7.6729164"
       r="0.79374999" /><circle
       style="fill:#05475c;fill-opacity:1;stroke:none;stroke-width:1.32292;stroke-linecap:round;stroke-linejoin:round"
       id="circle1450"
       cx="17.197916"
       cy="7.6729164"
       r="0.79374999" /><circle
       style="fill:#05475c;fill-opacity:1;stroke:none;stroke-width:1.32292;stroke-linecap:round;stroke-linejoin:round"
       id="circle1452"
       cx="14.022916"
       cy="7.6729164"
       r="0.79374999" /><circle
       style="fill:#05475c;fill-opacity:1;stroke:none;stroke-width:1.32292;stroke-linecap:round;stroke-linejoin:round"
       id="circle1454"
       cx="10.847917"
       cy="7.6729164"
       r="0.79374999" /><circle
       style="fill:#05475c;fill-opacity:1;stroke:none;stroke-width:1.32292;stroke-linecap:round;stroke-linejoin:round"
       id="circle1456"
       cx="10.847917"
       cy="10.847917"
       r="0.79374999" /><circle
       style="fill:#05475c;fill-opacity:1;stroke:none;stroke-width:1.32292;stroke-linecap:round;stroke-linejoin:round"
       id="circle1458"
       cx="10.847917"
       cy="14.022917"
       r="0.79374999" /><circle
       style="fill:#05475c;fill-opacity:1;stroke:none;stroke-width:1.32292;stroke-linecap:round;stroke-linejoin:round"
       id="circle1460"
       cx="10.847917"
       cy="17.197916"
       r="0.79374999" /><circle
       style="fill:#05475c;fill-opacity:1;stroke:none;stroke-width:1.32292;stroke-linecap:round;stroke-linejoin:round"
       id="circle1462"
       cx="10.847917"
       cy="20.372917"
       r="0.79374999" /><circle
       style="fill:#05475c;fill-opacity:1;stroke:none;stroke-width:1.32292;stroke-linecap:round;stroke-linejoin:round"
       id="circle1464"
       cx="14.022917"
       cy="20.372917"
       r="0.79374999" /><circle
       style="fill:#05475c;fill-opacity:1;stroke:none;stroke-width:1.32292;stroke-linecap:round;stroke-linejoin:round"
       id="circle1466"
       cx="17.197916"
       cy="20.372917"
       r="0.79374999" /></g></svg>
