<?xml version="1.0" encoding="UTF-8" standalone="no"?>
<!-- Created with Inkscape (http://www.inkscape.org/) -->

<svg
   width="80"
   height="80"
   viewBox="0 0 21.166666 21.166667"
   version="1.1"
   id="svg1124"
   xml:space="preserve"
   xmlns="http://www.w3.org/2000/svg"
   xmlns:svg="http://www.w3.org/2000/svg"
   xmlns:rdf="http://www.w3.org/1999/02/22-rdf-syntax-ns#"
   xmlns:cc="http://creativecommons.org/ns#"
   xmlns:dc="http://purl.org/dc/elements/1.1/"><title
     id="title5341">Debian PTS</title><defs
     id="defs1121" /><metadata
     id="metadata1268"><rdf:RDF><cc:Work
         rdf:about=""><dc:creator><cc:Agent><dc:title>Gerhard A. Dittes &lt;maestro.gerardo@gmail.com&gt;</dc:title></cc:Agent></dc:creator><dc:title>Debian PTS</dc:title></cc:Work></rdf:RDF></metadata><g
     id="g5361"><g
       id="g5333"
       transform="translate(0.08974769,-0.09166545)"><path
         d="m 15.341059,6.8414158 c 0.488974,-0.5594665 -0.549713,-0.9044787 -0.975244,-0.7748911 -1.153179,0.3511733 -1.205336,1.804939 -0.650162,2.6346299 0.993058,1.4841244 3.203649,1.4764594 4.551137,0.4649352 1.977482,-1.484452 1.903701,-4.3218556 0.32508,-6.0441515 -2.104054,-2.29554997 -5.868469,-2.15879835 -8.127029,-0.1549792 -2.8421737,2.5216013 -2.6273075,6.8720567 0,9.4536729 2.102234,2.065679 5.345908,2.745805 8.201355,1.882637"
         id="path5191"
         style="display:inline;fill:none;stroke:#483b28;stroke-width:2.64583;stroke-linecap:round;stroke-linejoin:miter;stroke-miterlimit:4;stroke-dasharray:none;stroke-opacity:1" /><path
         d="m 15.341059,6.8414158 c 0.488974,-0.5594665 -0.549713,-0.9044787 -0.975244,-0.7748911 -1.153179,0.3511733 -1.205336,1.804939 -0.650162,2.6346299 0.993058,1.4841244 3.203649,1.4764594 4.551137,0.4649352 1.977482,-1.484452 1.903701,-4.3218556 0.32508,-6.0441515 -2.104054,-2.29554997 -5.868469,-2.15879835 -8.127029,-0.1549792 -2.8421737,2.5216013 -2.6273075,6.8720567 0,9.4536729 2.102234,2.065679 5.345908,2.745805 8.201355,1.882637"
         id="path14431-0"
         style="display:inline;fill:none;stroke:#e80857;stroke-width:1.5875;stroke-linecap:round;stroke-linejoin:miter;stroke-miterlimit:4;stroke-dasharray:none;stroke-opacity:1" /></g><path
       style="fill:#dbc298;fill-opacity:1;stroke:#483b28;stroke-width:1.05833;stroke-linecap:round;stroke-linejoin:round;stroke-dasharray:none;stroke-opacity:1"
       d="m 2.1166664,19.84375 c 0,0 1.3229167,1.322916 2.6458334,0 L 8.2020829,16.404166 11.1125,19.314584 c 0,0 0.264584,0.264583 0.529167,0.264583 0,0 0.264583,0 0.264583,-0.529167 v -8.202083 c 0,0 0,-1.5875007 -1.5875,-1.5875007 H 2.1166664 c -0.5291667,0 -0.5291666,0.2645833 -0.5291666,0.2645833 0,0.264583 0.5291666,0.7937504 0.5291666,0.7937504 l 2.6458332,2.645833 -3.4395831,3.439584 c -1.32291668375001,1.322916 0,2.645833 0,2.645833 z"
       id="path4505" /></g></svg>
