<?xml version="1.0" encoding="UTF-8" standalone="no"?>
<!-- Created with Inkscape (http://www.inkscape.org/) -->

<svg
   width="80"
   height="80"
   viewBox="0 0 21.166666 21.166667"
   version="1.1"
   id="svg1124"
   xml:space="preserve"
   xmlns="http://www.w3.org/2000/svg"
   xmlns:svg="http://www.w3.org/2000/svg"
   xmlns:rdf="http://www.w3.org/1999/02/22-rdf-syntax-ns#"
   xmlns:cc="http://creativecommons.org/ns#"
   xmlns:dc="http://purl.org/dc/elements/1.1/"><title
     id="title2908">Manual</title><defs
     id="defs1121" /><metadata
     id="metadata1268"><rdf:RDF><cc:Work
         rdf:about=""><dc:creator><cc:Agent><dc:title>Gerhard A. Dittes &lt;maestro.gerardo@gmail.com&gt;</dc:title></cc:Agent></dc:creator><dc:title>Manual</dc:title></cc:Work></rdf:RDF></metadata><g
     id="g7564"><path
       style="fill:#e3d2b5;fill-opacity:1;stroke:#483b28;stroke-width:1.05833;stroke-linecap:butt;stroke-linejoin:miter;stroke-dasharray:none;stroke-opacity:1"
       d="M 0.52916666,5.8208333 0.5291665,17.4625 c -3e-8,2.116666 2.1166671,2.116666 2.1166671,2.116666 H 18.520834 c 0,0 -2.116666,0 0,0 2.116666,0 2.116666,-2.116666 2.116666,-2.116666 V 5.8208333 c 0,-2.1166661 -2.116666,-2.1166661 -2.116666,-2.1166661 H 2.6458338 c -2.11666714,0 -2.11666714,2.1166661 -2.11666714,2.1166661 z"
       id="path2077" /><path
       style="fill:#f7f3ed;fill-opacity:1;stroke:#554530;stroke-width:1.05833;stroke-linecap:round;stroke-linejoin:round;stroke-dasharray:none;stroke-opacity:1"
       d="m 13.229167,16.933333 h 3.174999 c 2.116667,0 2.116667,-2.116666 2.116667,-2.116666 V 3.7041666 C 18.520833,1.5875 16.404166,1.5875 16.404166,1.5875 H 14.2875 c -3.704167,0 -3.704167,3.7041666 -3.704167,3.7041666 0,0 0,-3.7041666 -3.1749997,-3.7041666 H 4.7625002 c 0,0 -2.1166667,0 -2.1166667,2.1166666 l -2e-7,11.1125004 c 0,0 0,2.116666 2.1166667,2.116666 h 3.1749999 c 0,0 2.6458331,0 2.6458331,2.645833 0,-2.645833 2.645834,-2.645833 2.645834,-2.645833 z"
       id="path1851" /><path
       style="fill:none;stroke:#4e402c;stroke-width:1.05833;stroke-linecap:round;stroke-linejoin:round;stroke-dasharray:none;stroke-opacity:1"
       d="M 10.583333,5.2916666 V 19.579167"
       id="path2906" /><path
       style="fill:#88765d;fill-opacity:1;stroke:#8b795f;stroke-width:1.5875;stroke-linecap:round;stroke-linejoin:miter;stroke-dasharray:none;stroke-opacity:1"
       d="M 14.552083,8.7312499 V 12.435417"
       id="path2101" /><circle
       style="fill:#917e63;fill-opacity:1;stroke:none;stroke-width:2.11667;stroke-linecap:round;stroke-linejoin:round;stroke-dasharray:none;stroke-dashoffset:2.8;stroke-opacity:1"
       id="path4796"
       cx="14.552083"
       cy="6.0854168"
       r="0.92604166" /></g></svg>
